Getting started • EpiSoon
…
rt_forecast <- forecast_rt(
  EpiSoon::example_obs_rts[1:10, ],
  model = function(...) {
    EpiSoon::bsts_model(
      model = function(ss, y) {
        bsts::AddAutoAr(ss, y = y, lags = 10)}, ...)
      },
      horizon = 21, samples = 10
)

rt_forecast
#> # A tibble: 210 × 4
#>    sample date          rt horizon
#>     <int> <date>     <dbl>   <int>
#>  1      1 2020-03-11  1.99       1
#>  2      2 2020-03-11  1.89       1
#>  3      3 2020-03-11  1.99       1
#>  4      4 2020-03-11  1.93       1
#>  5      5 2020-03-11  1.88       1
#>  6      6 2020-03-11  1.94       1
#>  7      7 2020-03-11  1.98       1
#>  8      8 2020-03-11  2.00       1
#>  9      9 2020-03-11  1.86       1
#> 10     10 2020-03-11  1.96       1
#> # … with 200 more rows
…
Summarise the forecast

summarised_rt_forecast <- summarise_forecast(rt_forecast)

summarised_rt_forecast
#> # A tibble: 21 × 9
#>    date       horizon median  mean     sd bottom lower upper   top
#>    <date>       <int>  <dbl> <dbl>  <dbl>  <dbl> <dbl> <dbl> <dbl>
#>  1 2020-03-11       1   1.95  1.94 0.0527   1.86  1.94  2.00  2.00
#>  2 2020-03-12       2   1.94  1.94 0.0948   1.78  1.91  2.00  2.10
#>  3 2020-03-13       3   1.93  1.93 0.0996   1.77  1.87  1.97  2.11
#>  4 2020-03-14       4   1.91  1.91 0.117    1.73  1.81  1.97  2.09
#>  5 2020-03-15       5   1.86  1.88 0.110    1.76  1.76  1.87  2.07
#>  6 2020-03-16       6   1.81  1.86 0.180    1.70  1.70  1.81  2.31
#>  7 2020-03-17       7   1.78  1.81 0.166    1.65  1.74  1.80  2.23
#>  8 2020-03-18       8   1.74  1.79 0.193    1.61  1.71  1.79  2.27
#>  9 2020-03-19       9   1.72  1.77 0.199    1.57  1.57  1.72  2.18
#> 10 2020-03-20      10   1.68  1.75 0.205    1.56  1.59  1.71  2.21
#> # … with 11 more rows
…
Forecast cases, score and plot

Forecasting cases requires the observed cases on which the observed
Rt estimates were based

EpiSoon::example_obs_cases
#> # A tibble: 63 × 2
#>    cases date      
#>    <dbl> <date>    
#>  1     1 2020-01-20
#>  2     0 2020-01-21
#>  3     1 2020-01-22
#>  4     0 2020-01-23
#>  5     0 2020-01-24
#>  6     0 2020-01-25
#>  7     1 2020-01-26
#>  8     0 2020-01-27
#>  9     0 2020-01-28
#> 10     0 2020-01-29
#> # … with 53 more rows
…
Summarise the cases forecast

summarised_case_forecast <- summarise_case_forecast(case_forecast)

summarised_case_forecast
#> # A tibble: 21 × 9
#>    date       horizon median  mean     sd bottom lower upper   top
#>    <date>       <int>  <dbl> <dbl>  <dbl>  <dbl> <dbl> <dbl> <dbl>
#>  1 2020-03-11       1   165   165.   9.68    152   159   170   182
#>  2 2020-03-12       2   203   197.  14.7     172   202   212   212
#>  3 2020-03-13       3   232.  232.  17.3     196   226   243   252
#>  4 2020-03-14       4   271   264.  25.3     218   269   289   289
#>  5 2020-03-15       5   304.  306   26.5     276   280   309   350
#>  6 2020-03-16       6   349   355.  39.0     304   321   371   426
#>  7 2020-03-17       7   393   404.  68.0     317   359   399   573
#>  8 2020-03-18       8   420.  448.  84.2     376   382   425   652
#>  9 2020-03-19       9   497   541. 115.      429   461   528   797
#> 10 2020-03-20      10   546.  604. 166.      470   470   561   984
#> # … with 11 more rows
…
Use iterative fitting to explore a forecast

To explore the quality of a models forecast it can help to
iteratively forecast from each available data point. This is supported
in EpiSoon using the following:

it_rt_forecast <- iterative_rt_forecast(EpiSoon::example_obs_rts,
                                        model = function(...){
                                          EpiSoon::bsts_model(model = function(ss, y){bsts::AddAutoAr(ss, y = y, lags = 10)}, ...)
                                          },
                                        horizon = 7, samples = 10, min_points = 4)

it_rt_forecast
#> # A tibble: 1,260 × 5
#>    forecast_date sample date          rt horizon
#>    <chr>          <int> <date>     <dbl>   <int>
#>  1 2020-03-05         1 2020-03-06  2.25       1
#>  2 2020-03-05         2 2020-03-06  2.14       1
#>  3 2020-03-05         3 2020-03-06  2.26       1
#>  4 2020-03-05         4 2020-03-06  2.20       1
#>  5 2020-03-05         5 2020-03-06  2.25       1
#>  6 2020-03-05         6 2020-03-06  2.23       1
#>  7 2020-03-05         7 2020-03-06  2.20       1
#>  8 2020-03-05         8 2020-03-06  2.26       1
#>  9 2020-03-05         9 2020-03-06  2.33       1
#> 10 2020-03-05        10 2020-03-06  2.18       1
#> # … with 1,250 more rows
…
model_eval <- evaluate_model(EpiSoon::example_obs_rts,
                             EpiSoon::example_obs_cases,
                             model = function(...){
                                          EpiSoon::bsts_model(model = function(ss, y){bsts::AddAutoAr(ss, y = y, lags = 10)}, ...)
                                          },
                             horizon = 21, samples = 10,
                             serial_interval = EpiSoon::example_serial_interval)

model_eval
#> $forecast_rts
#> # A tibble: 399 × 10
#>    forecast_date date       horizon median  mean    sd bottom lower upper   top
#>    <chr>         <date>       <int>  <dbl> <dbl> <dbl>  <dbl> <dbl> <dbl> <dbl>
#>  1 2020-03-04    2020-03-05       1   2.01  1.90 0.442 1.04    1.98  2.33  2.33
#>  2 2020-03-04    2020-03-06       2   1.80  1.74 0.610 0.603   1.68  2.36  2.49
#>  3 2020-03-04    2020-03-07       3   1.73  1.69 0.641 0.538   1.41  2.15  2.53
#>  4 2020-03-04    2020-03-08       4   1.60  1.58 0.680 0.387   1.57  2.39  2.39
#>  5 2020-03-04    2020-03-09       5   1.56  1.45 0.839 0.0101  1.38  2.37  2.37
#>  6 2020-03-04    2020-03-10       6   1.46  1.39 0.768 0       1.36  2.20  2.20
#>  7 2020-03-04    2020-03-11       7   1.33  1.29 0.780 0       1.16  2.13  2.22
#>  8 2020-03-04    2020-03-12       8   1.28  1.26 0.791 0       1.14  2.24  2.24
#>  9 2020-03-04    2020-03-13       9   1.32  1.23 0.849 0       1.03  2.14  2.28
#> 10 2020-03-04    2020-03-14      10   1.37  1.23 0.767 0.0500  1.27  2.19  2.19
#> # … with 389 more rows
…
#>       log_score  ae_median      se_mean
#>   1:  0.1570760 0.25330972 1.332317e-01
#>   2:  0.5590227 0.39711536 2.001188e-01
#>   3:  0.6168468 0.41871546 2.072917e-01
#>   4:  0.8092647 0.50134431 2.778848e-01
#>   5:  0.9014631 0.49516922 3.759571e-01
#>  ---                                   
#> 167: -0.9479050 0.08928297 6.178471e-03
#> 168: -1.1715088 0.01687125 6.542943e-06
#> 169: -0.2592720 0.13848512 1.711815e-02
#> 170: -1.0117056 0.04631058 3.258931e-05
#> 171: -1.7036670 0.03292503 1.133060e-03
#> 
#> $forecast_cases
#> # A tibble: 171 × 10
#>    forecast_date date       horizon median  mean    sd bottom lower upper   top
#>    <chr>         <date>       <int>  <dbl> <dbl> <dbl>  <dbl> <dbl> <dbl> <dbl>
#>  1 2020-03-04    2020-03-05       1   57    57.1  17.6     33    46    68    83
#>  2 2020-03-04    2020-03-06       2   73.5  68.3  27.4     18    72    95    95
#>  3 2020-03-04    2020-03-07       3   81    79.5  37.6     23    55   108   137
#>  4 2020-03-04    2020-03-08       4   74    81.8  45.1     14    71   127   149
#>  5 2020-03-04    2020-03-09       5   81    95.3  71.1      1     1    82   199
#>  6 2020-03-04    2020-03-10       6   94.5 108.   81.5      0     0    95   227
#>  7 2020-03-04    2020-03-11       7   82.5 118.   99.4      0     0    93   285
#>  8 2020-03-04    2020-03-12       8   94.5 142.  128.       0     0    98   377
#>  9 2020-03-04    2020-03-13       9   89.5 166   172.       0     0   114   501
#> 10 2020-03-04    2020-03-14      10  104   179.  186.       1     1   121   512
#> # … with 161 more rows
…
