Forecasts cases for a Rt forecasts — forecast_cases • EpiSoon
…
    Examples

## Rt forecast
forecast <- forecast_rt(EpiSoon::example_obs_rts[1:10, ],
                        model = function(...){
                        EpiSoon::bsts_model(model = function(ss, y){
                        bsts::AddAutoAr(ss, y = y, lags = 10)}, ...)
                        },
                        horizon = 7, samples = 10)

forecast_cases(EpiSoon::example_obs_cases,
               fit_samples =  forecast,
               serial_interval = EpiSoon::example_serial_interval)
#> # A tibble: 70 x 4
#>    sample date       cases horizon
#>     <dbl> <date>     <int>   <int>
#>  1      1 2020-03-11     0       1
#>  2      1 2020-03-12     3       2
#>  3      1 2020-03-13     0       3
#>  4      1 2020-03-14     7       4
#>  5      1 2020-03-15     0       5
#>  6      1 2020-03-16     0       6
#>  7      1 2020-03-17     6       7
#>  8      2 2020-03-11   183       1
#>  9      2 2020-03-12   201       2
#> 10      2 2020-03-13   241       3
#> # … with 60 more rows
…
