Getting started • EpiSoon
…
Fit a bsts model and produce a Rt forecast. Any appropriately wrapped model can be used (see bsts_model and fable_model for an examples).

rt_forecast <- forecast_rt(EpiSoon::example_obs_rts[1:10, ],
                       model = function(...){EpiSoon::bsts_model(model = function(ss, y){bsts::AddAutoAr(ss, y = y, lags = 10)}, ...)},
                       horizon = 21, samples = 10)

rt_forecast
#> # A tibble: 210 x 4
#>    sample date          rt horizon
#>     <int> <date>     <dbl>   <int>
#>  1      1 2020-03-11  1.91       1
#>  2      2 2020-03-11  2.06       1
#>  3      3 2020-03-11  1.95       1
#>  4      4 2020-03-11  1.96       1
#>  5      5 2020-03-11  1.93       1
#>  6      6 2020-03-11  1.98       1
#>  7      7 2020-03-11  2.07       1
#>  8      8 2020-03-11  2.05       1
#>  9      9 2020-03-11  2.04       1
#> 10     10 2020-03-11  1.95       1
#> # … with 200 more rows
…
Summarise the forecast

summarised_rt_forecast <- summarise_forecast(rt_forecast)

summarised_rt_forecast
#> # A tibble: 21 x 9
#>    date       horizon median  mean     sd bottom lower upper   top
#>    <date>       <int>  <dbl> <dbl>  <dbl>  <dbl> <dbl> <dbl> <dbl>
#>  1 2020-03-11       1   1.97  1.99 0.0593   1.91  1.91  1.98  2.07
#>  2 2020-03-12       2   1.93  1.92 0.0834   1.73  1.89  1.93  2.05
#>  3 2020-03-13       3   1.91  1.92 0.181    1.54  1.82  1.94  2.20
#>  4 2020-03-14       4   1.84  1.87 0.144    1.61  1.79  1.86  2.13
#>  5 2020-03-15       5   1.81  1.83 0.134    1.59  1.79  1.83  2.07
#>  6 2020-03-16       6   1.73  1.76 0.190    1.43  1.64  1.77  2.09
#>  7 2020-03-17       7   1.68  1.72 0.222    1.30  1.65  1.82  2.12
#>  8 2020-03-18       8   1.65  1.67 0.192    1.30  1.53  1.74  1.93
#>  9 2020-03-19       9   1.67  1.66 0.217    1.22  1.54  1.78  1.96
#> 10 2020-03-20      10   1.59  1.60 0.211    1.23  1.44  1.70  1.96
#> # … with 11 more rows
…
Forecast cases, score and plot

Forecasting cases requires the observed cases on which the observed Rt estimates were based

EpiSoon::example_obs_cases
#> # A tibble: 63 x 2
#>    cases date      
#>    <dbl> <date>    
#>  1     1 2020-01-20
#>  2     0 2020-01-21
#>  3     1 2020-01-22
#>  4     0 2020-01-23
#>  5     0 2020-01-24
#>  6     0 2020-01-25
#>  7     1 2020-01-26
#>  8     0 2020-01-27
#>  9     0 2020-01-28
#> 10     0 2020-01-29
#> # … with 53 more rows

It also requires an assumption to be made about the serial interval (defined using probability distribution).

EpiSoon::example_serial_interval
#>         1    2    3    4    5    6    7    8    9   10   11   12   14 
#> 0.00 0.03 0.25 0.17 0.09 0.15 0.13 0.05 0.05 0.03 0.02 0.01 0.01 0.01

Forecast cases (using the case data on which the observed Rt estimates were based)

case_forecast <- forecast_cases(EpiSoon::example_obs_cases, rt_forecast,
                                serial_interval = EpiSoon::example_serial_interval)

case_forecast
#> # A tibble: 210 x 4
#>    sample date       cases horizon
#>     <dbl> <date>     <int>   <int>
#>  1      1 2020-03-11   151       1
#>  2      1 2020-03-12   178       2
#>  3      1 2020-03-13   153       3
#>  4      1 2020-03-14   198       4
#>  5      1 2020-03-15   206       5
#>  6      1 2020-03-16   242       6
#>  7      1 2020-03-17   222       7
#>  8      1 2020-03-18   231       8
#>  9      1 2020-03-19   237       9
#> 10      1 2020-03-20   267      10
#> # … with 200 more rows
…
Summarise the cases forecast

summarised_case_forecast <- summarise_case_forecast(case_forecast)

summarised_case_forecast
#> # A tibble: 21 x 9
#>    date       horizon median  mean     sd bottom lower upper   top
#>    <date>       <int>  <dbl> <dbl>  <dbl>  <dbl> <dbl> <dbl> <dbl>
#>  1 2020-03-11       1   168.  166.   9.88    149   164   175   177
#>  2 2020-03-12       2   198.  197.  18.5     175   175   199   229
#>  3 2020-03-13       3   230   225.  33.8     153   220   237   269
#>  4 2020-03-14       4   254   264.  39.5     198   238   280   334
#>  5 2020-03-15       5   298   299   47.0     206   277   314   382
#>  6 2020-03-16       6   342.  350   72.7     242   293   348   480
#>  7 2020-03-17       7   394   399.  89.5     222   356   407   568
#>  8 2020-03-18       8   426.  434. 121.      231   323   456   629
#>  9 2020-03-19       9   475   499. 150.      237   408   511   782
#> 10 2020-03-20      10   523   548. 178.      267   408   576   904
#> # … with 11 more rows
…
Use iterative fitting to explore a forecast

To explore the quality of a models forecast it can help to iteratively forecast from each available data point. This is supported in EpiSoon using the following:

it_rt_forecast <- iterative_rt_forecast(EpiSoon::example_obs_rts,
                                        model = function(...){
                                          EpiSoon::bsts_model(model = function(ss, y){bsts::AddAutoAr(ss, y = y, lags = 10)}, ...)
                                          },
                                        horizon = 7, samples = 10, min_points = 4)

it_rt_forecast
#> # A tibble: 1,260 x 5
#>    forecast_date sample date          rt horizon
#>    <chr>          <int> <date>     <dbl>   <int>
#>  1 2020-03-05         1 2020-03-06  2.10       1
#>  2 2020-03-05         2 2020-03-06  2.21       1
#>  3 2020-03-05         3 2020-03-06  2.19       1
#>  4 2020-03-05         4 2020-03-06  2.22       1
#>  5 2020-03-05         5 2020-03-06  2.24       1
#>  6 2020-03-05         6 2020-03-06  2.25       1
#>  7 2020-03-05         7 2020-03-06  2.21       1
#>  8 2020-03-05         8 2020-03-06  2.19       1
#>  9 2020-03-05         9 2020-03-06  2.21       1
#> 10 2020-03-05        10 2020-03-06  2.12       1
#> # … with 1,250 more rows

We can then iteratively forecast cases using the following:

it_cases_forecast <- iterative_case_forecast(it_fit_samples = it_rt_forecast,
                                             cases = EpiSoon::example_obs_cases,
                                             serial_interval = EpiSoon::example_serial_interval)

it_cases_forecast
#> # A tibble: 1,260 x 5
#>    forecast_date sample date       cases horizon
#>    <chr>          <dbl> <date>     <int>   <int>
#>  1 2020-03-05         1 2020-03-06    75       1
#>  2 2020-03-05         1 2020-03-07   101       2
#>  3 2020-03-05         1 2020-03-08   107       3
#>  4 2020-03-05         1 2020-03-09   132       4
#>  5 2020-03-05         1 2020-03-10   130       5
#>  6 2020-03-05         1 2020-03-11   150       6
#>  7 2020-03-05         1 2020-03-12   192       7
#>  8 2020-03-05         2 2020-03-06    79       1
#>  9 2020-03-05         2 2020-03-07    90       2
#> 10 2020-03-05         2 2020-03-08   109       3
#> # … with 1,250 more rows
…
Evaluate a model

In real world use we are likely to want to evaluate a model by iteratively forecasting Rts and cases, summarising these forecasts, scoring them and then returning them in a sensible format. These steps are all contained in the evaluate_model function.

model_eval <- evaluate_model(EpiSoon::example_obs_rts,
                             EpiSoon::example_obs_cases,
                             model = function(...){
                                          EpiSoon::bsts_model(model = function(ss, y){bsts::AddAutoAr(ss, y = y, lags = 10)}, ...)
                                          },
                             horizon = 21, samples = 10,
                             serial_interval = EpiSoon::example_serial_interval)

model_eval
#> $forecast_rts
#> # A tibble: 399 x 10
#>    forecast_date date       horizon median  mean     sd bottom lower upper   top
#>    <chr>         <date>       <int>  <dbl> <dbl>  <dbl>  <dbl> <dbl> <dbl> <dbl>
#>  1 2020-03-04    2020-03-05       1   2.27  2.28 0.0754 2.17    2.23  2.30  2.41
#>  2 2020-03-04    2020-03-06       2   2.21  2.17 0.154  1.83    2.17  2.30  2.32
#>  3 2020-03-04    2020-03-07       3   2.17  2.05 0.282  1.48    2.15  2.34  2.34
#>  4 2020-03-04    2020-03-08       4   2.05  1.86 0.450  0.969   1.97  2.29  2.29
#>  5 2020-03-04    2020-03-09       5   1.94  1.70 0.600  0.523   1.82  2.29  2.29
#>  6 2020-03-04    2020-03-10       6   1.74  1.51 0.726  0.0371  1.71  2.23  2.23
#>  7 2020-03-04    2020-03-11       7   1.61  1.39 0.777  0       1.59  2.25  2.25
#>  8 2020-03-04    2020-03-12       8   1.51  1.29 0.827  0       1.46  2.24  2.24
#>  9 2020-03-04    2020-03-13       9   1.48  1.24 0.868  0       1.44  2.21  2.21
#> 10 2020-03-04    2020-03-14      10   1.46  1.20 0.879  0       1.44  2.16  2.16
#> # … with 389 more rows
#> 
#> $rt_scores
#> # A tibble: 171 x 9
#>    forecast_date date       horizon    dss   crps   logs   bias sharpness
#>    <chr>         <date>       <int>  <dbl>  <dbl>  <dbl>  <dbl>     <dbl>
#>  1 2020-03-04    2020-03-05       1 -5.25  0.0157 -1.78   0        0.0547
#>  2 2020-03-04    2020-03-06       2 -3.81  0.0379 -0.865  0        0.129 
#>  3 2020-03-04    2020-03-07       3 -2.52  0.0680 -0.306  0.200    0.232 
#>  4 2020-03-04    2020-03-08       4 -1.37  0.125   0.220  0        0.322 
#>  5 2020-03-04    2020-03-09       5 -0.722 0.166   0.504  0        0.465 
#>  6 2020-03-04    2020-03-10       6 -0.177 0.223   0.690 -0.200    0.548 
#>  7 2020-03-04    2020-03-11       7  0.104 0.282   0.806 -0.6      0.650 
#>  8 2020-03-04    2020-03-12       8  0.326 0.340   0.905 -0.6      0.762 
#>  9 2020-03-04    2020-03-13       9  0.400 0.352   0.947 -0.400    0.814 
#> 10 2020-03-04    2020-03-14      10  0.441 0.361   0.950 -0.6      0.797 
#> # … with 161 more rows, and 1 more variable: calibration <dbl>
#> 
#> $forecast_cases
#> # A tibble: 171 x 10
#>    forecast_date date       horizon median  mean    sd bottom lower upper   top
#>    <chr>         <date>       <int>  <dbl> <dbl> <dbl>  <dbl> <dbl> <dbl> <dbl>
#>  1 2020-03-04    2020-03-05       1   64.5  66.3  12.0     51    60    70    87
#>  2 2020-03-04    2020-03-06       2   86    81.1  12.2     54    86    94    94
#>  3 2020-03-04    2020-03-07       3   92.5  91.3  17.6     61    83   109   116
#>  4 2020-03-04    2020-03-08       4  106.  103.   32.9     37    92   127   145
#>  5 2020-03-04    2020-03-09       5  138.  120    50.4     22   135   173   173
#>  6 2020-03-04    2020-03-10       6  122   120.   67.2      2    84   174   202
#>  7 2020-03-04    2020-03-11       7  156.  138.   90.9      0   153   257   257
#>  8 2020-03-04    2020-03-12       8  160.  145.  108.       0   155   291   291
#>  9 2020-03-04    2020-03-13       9  166   167.  140.       0     0   179   360
#> 10 2020-03-04    2020-03-14      10  202   193.  165.       0     0   220   436
#> # … with 161 more rows
#> 
#> $case_scores
#> # A tibble: 171 x 10
#>    sample forecast_date date       horizon   dss  crps  logs   bias sharpness
#>    <chr>  <chr>         <date>       <int> <dbl> <dbl> <dbl>  <dbl>     <dbl>
#>  1 1      2020-03-04    2020-03-05       1  4.95  2.47  3.18  0.100      7.41
#>  2 1      2020-03-04    2020-03-06       2  5.39  5.99  3.91  0.6       10.4 
#>  3 1      2020-03-04    2020-03-07       3  5.67  5.19  4.08  0.200     20.8 
#>  4 1      2020-03-04    2020-03-08       4  6.88  6.84  4.34  0         25.9 
#>  5 1      2020-03-04    2020-03-09       5  7.74 16.3   5.11  0.200     41.5 
#>  6 1      2020-03-04    2020-03-10       6  8.43 19.4   5.32 -0.200     68.9 
#>  7 1      2020-03-04    2020-03-11       7  9.03 26.3   5.67 -0.200    100.  
#>  8 1      2020-03-04    2020-03-12       8  9.49 34.9   5.87 -0.200    142.  
#>  9 1      2020-03-04    2020-03-13       9  9.87 46.3   6.20 -0.200    199.  
#> 10 1      2020-03-04    2020-03-14      10 10.2  55.2   6.35 -0.400    244.  
#> # … with 161 more rows, and 1 more variable: calibration <dbl>
…
