brms model wrapper — brms_model • EpiSoon
…
#> Chain 1:                0.135294 seconds (Total)
#> Chain 1: 
#> Warning: There were 7 divergent transitions after warmup. Increasing adapt_delta above 0.8 may help. See
#> http://mc-stan.org/misc/warnings.html#divergent-transitions-after-warmup
#> Warning: Examine the pairs() plot to diagnose sampling problems
#> Warning: The largest R-hat is 1.51, indicating chains have not mixed.
#> Running the chains for more iterations may help. See
#> http://mc-stan.org/misc/warnings.html#r-hat
#> Warning: Bulk Effective Samples Size (ESS) is too low, indicating posterior means and medians may be unreliable.
#> Running the chains for more iterations may help. See
#> http://mc-stan.org/misc/warnings.html#bulk-ess
#> Warning: Tail Effective Samples Size (ESS) is too low, indicating posterior variances and tail quantiles may be unreliable.
#> Running the chains for more iterations may help. See
#> http://mc-stan.org/misc/warnings.html#tail-ess
#> # A tibble: 70 x 4
#>    sample date          rt horizon
#>     <int> <date>     <dbl>   <int>
#>  1      1 2020-03-11  2.00       1
#>  2      2 2020-03-11  2.02       1
#>  3      3 2020-03-11  2.04       1
#>  4      4 2020-03-11  2.01       1
#>  5      5 2020-03-11  2.01       1
#>  6      6 2020-03-11  2.04       1
#>  7      7 2020-03-11  2.07       1
#>  8      8 2020-03-11  2.12       1
#>  9      9 2020-03-11  2.03       1
#> 10     10 2020-03-11  2.09       1
#> # … with 60 more rows
…
