BSTS model wrapper — bsts_model • EpiSoon
…
## Used for forecasting
 forecast_rt(EpiSoon::example_obs_rts[1:10, ],
                    model = function(...){EpiSoon::bsts_model(model =
                      function(ss, y){
                        bsts::AddAr(ss, y = y, lags = 3)}, ...)},
                    horizon = 7, samples = 10)
#> # A tibble: 70 x 4
#>    sample date          rt horizon
#>     <int> <date>     <dbl>   <int>
#>  1      1 2020-03-11  1.94       1
#>  2      2 2020-03-11  1.98       1
#>  3      3 2020-03-11  1.98       1
#>  4      4 2020-03-11  1.95       1
#>  5      5 2020-03-11  1.97       1
#>  6      6 2020-03-11  1.93       1
#>  7      7 2020-03-11  1.91       1
#>  8      8 2020-03-11  2.03       1
#>  9      9 2020-03-11  1.97       1
#> 10     10 2020-03-11  1.93       1
#> # … with 60 more rows
…
