Plot forecast scores — plot_scores • EpiSoon
…
## Also summarise across time horizon
summarise_scores(scores, "horizon")
#> # A tibble: 70 x 10
#>    horizon score   model       bottom   lower  median   mean  upper   top     sd
#>      <int> <chr>   <chr>        <dbl>   <dbl>   <dbl>  <dbl>  <dbl> <dbl>  <dbl>
#>  1       1 bias    Semi-loca…  0.182   0.325   0.5     0.482  0.6   0.9   0.196 
#>  2       1 bias    Sparse AR   0       0.100   0.200   0.212  0.3   0.5   0.143 
#>  3       1 crps    Semi-loca…  0.0387  0.0569  0.0866  0.104  0.123 0.256 0.0662
#>  4       1 crps    Sparse AR   0.321   0.497   0.795   0.961  1.45  2.10  0.578 
#>  5       1 dss     Semi-loca… -4.22   -2.80   -2.32   -2.18  -1.78  0.280 1.07  
#>  6       1 dss     Sparse AR   0.197   1.19    1.70    1.96   2.84  4.20  1.24  
#>  7       1 logs    Semi-loca… -1.04   -0.501  -0.202  -0.162  0.143 0.799 0.537 
#>  8       1 logs    Sparse AR   1.06    1.53    1.68    1.84   2.25  2.89  0.491 
#>  9       1 sharpn… Semi-loca…  0.0850  0.163   0.275   0.287  0.366 0.647 0.162 
#> 10       1 sharpn… Sparse AR   0.752   0.994   1.42    1.74   2.12  3.99  0.974 
#> # … with 60 more rows
…
