Getting started • EpiSoon
…
Fit a bsts model and produce a Rt forecast. Any appropriately wrapped model can be used (see bsts_model and fable_model for an examples).

rt_forecast <- forecast_rt(EpiSoon::example_obs_rts[1:10, ],
                       model = function(...){EpiSoon::bsts_model(model = function(ss, y){bsts::AddAutoAr(ss, y = y, lags = 10)}, ...)},
                       horizon = 21, samples = 10)

rt_forecast
#> # A tibble: 210 x 4
#>    sample date           rt horizon
#>     <int> <date>      <dbl>   <int>
#>  1      1 2020-03-11 0.0187       1
#>  2      2 2020-03-11 1.99         1
#>  3      3 2020-03-11 1.97         1
#>  4      4 2020-03-11 1.96         1
#>  5      5 2020-03-11 1.90         1
#>  6      6 2020-03-11 1.91         1
#>  7      7 2020-03-11 1.99         1
#>  8      8 2020-03-11 2.04         1
#>  9      9 2020-03-11 1.97         1
#> 10     10 2020-03-11 1.93         1
#> # … with 200 more rows
…
Summarise the forecast

summarised_rt_forecast <- summarise_forecast(rt_forecast)

summarised_rt_forecast
#> # A tibble: 21 x 9
#>    date       horizon median  mean    sd  bottom lower upper   top
#>    <date>       <int>  <dbl> <dbl> <dbl>   <dbl> <dbl> <dbl> <dbl>
#>  1 2020-03-11       1   1.97  1.77 0.616 0.0187   1.93  1.99  2.04
#>  2 2020-03-12       2   1.88  1.71 0.602 0.0125   1.85  1.97  2.04
#>  3 2020-03-13       3   1.83  1.67 0.592 0        1.73  1.86  2.01
#>  4 2020-03-14       4   1.77  1.62 0.578 0.00637  1.74  1.94  1.95
#>  5 2020-03-15       5   1.73  1.56 0.563 0.0232   1.60  1.83  1.97
#>  6 2020-03-16       6   1.65  1.52 0.565 0        1.54  1.87  1.95
#>  7 2020-03-17       7   1.64  1.47 0.550 0        1.62  1.93  1.93
#>  8 2020-03-18       8   1.63  1.46 0.545 0        1.59  1.87  1.87
#>  9 2020-03-19       9   1.57  1.41 0.532 0        1.49  1.78  1.83
#> 10 2020-03-20      10   1.52  1.39 0.517 0        1.50  1.77  1.77
#> # … with 11 more rows
…
Forecast cases, score and plot

Forecasting cases requires the observed cases on which the observed Rt estimates were based

EpiSoon::example_obs_cases
#> # A tibble: 63 x 2
#>    cases date      
#>    <dbl> <date>    
#>  1     1 2020-01-20
#>  2     0 2020-01-21
#>  3     1 2020-01-22
#>  4     0 2020-01-23
#>  5     0 2020-01-24
#>  6     0 2020-01-25
#>  7     1 2020-01-26
#>  8     0 2020-01-27
#>  9     0 2020-01-28
#> 10     0 2020-01-29
#> # … with 53 more rows

It also requires an assumption to be made about the serial interval (defined using probability distribution).

EpiSoon::example_serial_interval
#>         1    2    3    4    5    6    7    8    9   10   11   12   14 
#> 0.00 0.03 0.25 0.17 0.09 0.15 0.13 0.05 0.05 0.03 0.02 0.01 0.01 0.01

Forecast cases (using the case data on which the observed Rt estimates were based)

case_forecast <- forecast_cases(EpiSoon::example_obs_cases, rt_forecast,
                                serial_interval = EpiSoon::example_serial_interval)

case_forecast
#> # A tibble: 210 x 4
#>    sample date       cases horizon
#>     <dbl> <date>     <int>   <int>
#>  1      1 2020-03-11     4       1
#>  2      1 2020-03-12     2       2
#>  3      1 2020-03-13     0       3
#>  4      1 2020-03-14     1       4
#>  5      1 2020-03-15     1       5
#>  6      1 2020-03-16     0       6
#>  7      1 2020-03-17     0       7
#>  8      1 2020-03-18     0       8
#>  9      1 2020-03-19     0       9
#> 10      1 2020-03-20     0      10
#> # … with 200 more rows
…
Summarise the cases forecast

summarised_case_forecast <- summarise_case_forecast(case_forecast)

summarised_case_forecast
#> # A tibble: 21 x 9
#>    date       horizon median  mean    sd bottom lower upper   top
#>    <date>       <int>  <dbl> <dbl> <dbl>  <dbl> <dbl> <dbl> <dbl>
#>  1 2020-03-11       1   166.  153.  53.8      4   152   174   188
#>  2 2020-03-12       2   181   165.  59.9      2   167   192   213
#>  3 2020-03-13       3   224   200   71.3      0   219   233   240
#>  4 2020-03-14       4   237   219.  81.8      1   203   250   288
#>  5 2020-03-15       5   292.  254.  93.5      1   292   319   319
#>  6 2020-03-16       6   302   272. 112.       0   253   327   406
#>  7 2020-03-17       7   357   324. 129.       0   341   428   428
#>  8 2020-03-18       8   364.  344. 150.       0   305   442   511
#>  9 2020-03-19       9   409   382. 172.       0   378   550   558
#> 10 2020-03-20      10   454   420. 191.       0   421   615   627
#> # … with 11 more rows
…
Use iterative fitting to explore a forecast

To explore the quality of a models forecast it can help to iteratively forecast from each available data point. This is supported in EpiSoon using the following:

it_rt_forecast <- iterative_rt_forecast(EpiSoon::example_obs_rts,
                                        model = function(...){
                                          EpiSoon::bsts_model(model = function(ss, y){bsts::AddAutoAr(ss, y = y, lags = 10)}, ...)
                                          },
                                        horizon = 7, samples = 10, min_points = 4)

it_rt_forecast
#> # A tibble: 1,260 x 5
#>    forecast_date sample date          rt horizon
#>    <chr>          <int> <date>     <dbl>   <int>
#>  1 2020-03-05         1 2020-03-06  0          1
#>  2 2020-03-05         2 2020-03-06  2.22       1
#>  3 2020-03-05         3 2020-03-06  2.25       1
#>  4 2020-03-05         4 2020-03-06  2.30       1
#>  5 2020-03-05         5 2020-03-06  2.28       1
#>  6 2020-03-05         6 2020-03-06  2.11       1
#>  7 2020-03-05         7 2020-03-06  2.26       1
#>  8 2020-03-05         8 2020-03-06  2.22       1
#>  9 2020-03-05         9 2020-03-06  2.23       1
#> 10 2020-03-05        10 2020-03-06  2.25       1
#> # … with 1,250 more rows

We can then iteratively forecast cases using the following:

it_cases_forecast <- iterative_case_forecast(it_fit_samples = it_rt_forecast,
                                             cases = EpiSoon::example_obs_cases,
                                             serial_interval = EpiSoon::example_serial_interval)

it_cases_forecast
#> # A tibble: 1,260 x 5
#>    forecast_date sample date       cases horizon
#>    <chr>          <dbl> <date>     <int>   <int>
#>  1 2020-03-05         1 2020-03-06     0       1
#>  2 2020-03-05         1 2020-03-07     4       2
#>  3 2020-03-05         1 2020-03-08     0       3
#>  4 2020-03-05         1 2020-03-09     5       4
#>  5 2020-03-05         1 2020-03-10     0       5
#>  6 2020-03-05         1 2020-03-11     0       6
#>  7 2020-03-05         1 2020-03-12     0       7
#>  8 2020-03-05         2 2020-03-06    83       1
#>  9 2020-03-05         2 2020-03-07    86       2
#> 10 2020-03-05         2 2020-03-08   129       3
#> # … with 1,250 more rows
…
Evaluate a model

In real world use we are likely to want to evaluate a model by iteratively forecasting Rts and cases, summarising these forecasts, scoring them and then returning them in a sensible format. These steps are all contained in the evaluate_model function.

model_eval <- evaluate_model(EpiSoon::example_obs_rts,
                             EpiSoon::example_obs_cases,
                             model = function(...){
                                          EpiSoon::bsts_model(model = function(ss, y){bsts::AddAutoAr(ss, y = y, lags = 10)}, ...)
                                          },
                             horizon = 21, samples = 10,
                             serial_interval = EpiSoon::example_serial_interval)

model_eval
#> $forecast_rts
#> # A tibble: 399 x 10
#>    forecast_date date       horizon median  mean    sd bottom lower upper   top
#>    <chr>         <date>       <int>  <dbl> <dbl> <dbl>  <dbl> <dbl> <dbl> <dbl>
#>  1 2020-03-04    2020-03-05       1   2.29  2.06 0.719 0.0125  2.28  2.32  2.32
#>  2 2020-03-04    2020-03-06       2   2.21  2.01 0.691 0.0512  2.17  2.25  2.30
#>  3 2020-03-04    2020-03-07       3   2.16  1.96 0.677 0.0457  2.15  2.26  2.26
#>  4 2020-03-04    2020-03-08       4   2.15  1.93 0.675 0.0179  2.15  2.25  2.25
#>  5 2020-03-04    2020-03-09       5   2.10  1.90 0.650 0.0649  1.97  2.12  2.24
#>  6 2020-03-04    2020-03-10       6   2.08  1.86 0.660 0       1.96  2.10  2.21
#>  7 2020-03-04    2020-03-11       7   1.99  1.81 0.646 0       1.90  2.04  2.20
#>  8 2020-03-04    2020-03-12       8   1.94  1.78 0.612 0.0681  1.85  2.02  2.14
#>  9 2020-03-04    2020-03-13       9   1.89  1.74 0.623 0       1.83  2.00  2.15
#> 10 2020-03-04    2020-03-14      10   1.88  1.71 0.614 0       1.78  1.95  2.10
#> # … with 389 more rows
#> 
#> $rt_scores
#> # A tibble: 171 x 12
#>    forecast_date date       horizon    dss   crps   logs   bias sharpness
#>    <chr>         <date>       <int>  <dbl>  <dbl>  <dbl>  <dbl>     <dbl>
#>  1 2020-03-04    2020-03-05       1 -0.671 0.0344 -2.07   0.4      0.0386
#>  2 2020-03-04    2020-03-06       2 -0.770 0.0396 -1.53   0.4      0.0609
#>  3 2020-03-04    2020-03-07       3 -0.805 0.0414 -1.32   0.200    0.0900
#>  4 2020-03-04    2020-03-08       4 -0.815 0.0493 -1.15   0.200    0.106 
#>  5 2020-03-04    2020-03-09       5 -0.899 0.0494 -1.08   0.200    0.126 
#>  6 2020-03-04    2020-03-10       6 -0.862 0.0552 -0.950  0.200    0.153 
#>  7 2020-03-04    2020-03-11       7 -0.870 0.0497 -1.07  -0.200    0.103 
#>  8 2020-03-04    2020-03-12       8 -0.948 0.0584 -0.846 -0.200    0.133 
#>  9 2020-03-04    2020-03-13       9 -0.902 0.0638 -0.756 -0.400    0.124 
#> 10 2020-03-04    2020-03-14      10 -0.912 0.0656 -0.725 -0.400    0.143 
#> # … with 161 more rows, and 4 more variables: calibration <dbl>, median <dbl>,
#> #   iqr <dbl>, ci <dbl>
#> 
#> $forecast_cases
#> # A tibble: 171 x 10
#>    forecast_date date       horizon median  mean    sd bottom lower upper   top
#>    <chr>         <date>       <int>  <dbl> <dbl> <dbl>  <dbl> <dbl> <dbl> <dbl>
#>  1 2020-03-04    2020-03-05       1   68.5  63.9  24.5      0    62    76    88
#>  2 2020-03-04    2020-03-06       2   84    77.7  28.9      1    74    94   103
#>  3 2020-03-04    2020-03-07       3   99.5  91.5  33.2      0    93   104   117
#>  4 2020-03-04    2020-03-08       4  126.  118.   44.0      0   110   133   157
#>  5 2020-03-04    2020-03-09       5  136   130.   48.9      2   131   152   187
#>  6 2020-03-04    2020-03-10       6  162.  152.   57.1      0   151   175   217
#>  7 2020-03-04    2020-03-11       7  210.  192.   73.5      0   179   210   259
#>  8 2020-03-04    2020-03-12       8  235   217.   83.0      0   191   245   293
#>  9 2020-03-04    2020-03-13       9  286   255   100.       0   286   344   344
#> 10 2020-03-04    2020-03-14      10  326.  299.  118.       0   315   406   406
#> # … with 161 more rows
#> 
#> $case_scores
#> # A tibble: 171 x 13
#>    sample forecast_date date       horizon   dss  crps  logs  bias sharpness
#>    <chr>  <chr>         <date>       <int> <dbl> <dbl> <dbl> <dbl>     <dbl>
#>  1 1      2020-03-04    2020-03-05       1  6.29  4.23  3.67   0.3     10.4 
#>  2 1      2020-03-04    2020-03-06       2  6.65  6.65  4.04   0.7     14.8 
#>  3 1      2020-03-04    2020-03-07       3  6.91  8.13  4.16   0.8      8.15
#>  4 1      2020-03-04    2020-03-08       4  7.61 18.1   5.07   0.8     19.3 
#>  5 1      2020-03-04    2020-03-09       5  7.76 15.4   4.91   0.8     15.6 
#>  6 1      2020-03-04    2020-03-10       6  8.03 15.4   4.78   0.8     17.8 
#>  7 1      2020-03-04    2020-03-11       7  8.61 25.7   5.21   0.8     43.7 
#>  8 1      2020-03-04    2020-03-12       8  8.82 25.5   5.24   0.6     40.8 
#>  9 1      2020-03-04    2020-03-13       9  9.35 43.0   5.85   0.6     66.0 
#> 10 1      2020-03-04    2020-03-14      10  9.62 43.6   5.82   0.8     75.6 
#> # … with 161 more rows, and 4 more variables: calibration <dbl>, median <dbl>,
#> #   iqr <dbl>, ci <dbl>
…
